{
  "repository": {
    "constant": {
      "patterns": [
        {
          "name": "constant.numeric.integer.panda",
          "match": "\\b[0-9]+\\b"
        },
        {
          "name": "constant.numeric.float.panda",
          "match": "\\b[0-9]+\\.[0-9]+\\b"
        },
        {
          "name": "constant.language.boolean.panda",
          "match": "\\b(true|false)\\b"
        },
        {
          "name": "string.quoted.double.panda",
          "begin": "\"",
          "end": "\"",
          "patterns": [
            {
              "name": "constant.character.escape.panda",
              "match": "\\\\."
            }
          ]
        }
      ]
    },
    "comment": {
      "patterns": [
        {
          "name": "comment.block.panda",
          "begin": "/\\*",
          "end": "\\*/"
        },
        {
          "name": "comment.line.double-slash.panda",
          "begin": "//",
          "end": "$"
        }
      ]
    },
    "core_types": {
      "name": "support.type.primitive.panda",
      "match": "\\b(bool|int|float|str)\\b"
    },
    "operator": {
      "patterns": [
        {
          "name": "keyword.operator.assignment.panda",
          "match": "\\b(\\+=|-=|/=|\\*=|%=|\\^=|&=|\\|=|<<=|>>=|=)\\b"
        },
        {
          "name": "keyword.operator.arithmetic.panda",
          "match": "(!|\\+|-|/|\\*|%|\\^|\\||<<|>>)"
        },
        {
          "name": "keyword.operator.comparison.panda",
          "match": "(&&|\\|\\||==|!=)"
        },
        {
          "name": "keyword.operator.comparison.panda",
          "match": "\\s(<|>)"
        },
        {
          "name": "keyword.operator.comparison.panda",
          "match": "\\B(<=|>=)\\B"
        }
      ]
    },
    "keyword": {
      "patterns": [
        {
          "name": "keyword.control.panda",
          "match": "\\b(break|continue|else|if|in|for|loop|return|while)\\b"
        },
        {
          "name": "keyword.other.panda",
          "match": "\\b(let|use)\\b"
        }
      ]
    }
  },
  "$schema": "https://raw.githubusercontent.com/martinring/tmlanguage/master/tmlanguage.json",
  "name": "panda",
  "scopeName": "source.panda",
  "patterns": [
    {
      "comment": "Struct definition",
      "begin": "\\b(struct)\\s+([a-zA-Z_][a-zA-Z0-9_]*)",
      "end": "\\{",
      "beginCaptures": {
        "1": {
          "name": "storage.type.panda"
        },
        "2": {
          "name": "entity.name.type.panda"
        }
      }
    },
    {
      "comment": "Function definition",
      "begin": "\\b(fn)\\s+([a-zA-Z_][a-zA-Z0-9_]*)",
      "end": "\\{",
      "beginCaptures": {
        "1": {
          "name": "keyword.other.panda"
        },
        "2": {
          "name": "entity.name.function.panda"
        }
      }
    },
    {
      "comment": "Callback definition",
      "begin": "\\b(on)\\s+([a-zA-Z_][a-zA-Z0-9_]*)",
      "end": "\\{",
      "beginCaptures": {
        "1": {
          "name": "keyword.other.panda"
        },
        "2": {
          "name": "entity.name.function.panda"
        }
      }
    },
    {
      "comment": "Builtins",
      "match": "@[a-zA-Z_][a-zA-Z0-9_]*",
      "name": "entity.name.variable.panda"
    },
    {
      "include": "#constant"
    },
    {
      "include": "#comment"
    },
    {
      "include": "#core_types"
    },
    {
      "include": "#operator"
    },
    {
      "include": "#keyword"
    }
  ]
}
